0
SECTION
2
HEADER
9
$INSUNITS
70
4
0
ENDSEC
0
SECTION
2
TABLES
0
TABLE
2
LTYPE
0
LTYPE
72
65
70
64
2
CONTINUOUS
3
______
73
0
40
0
0
ENDTAB
0
TABLE
2
LAYER
0
ENDTAB
0
ENDSEC
0
SECTION
2
ENTITIES
0
LINE
8
0
10
2.7
20
-9.7
11
101.7
21
-9.7
0
LINE
8
0
10
2.7
20
-9.7
11
2.7
21
27.1
0
LINE
8
0
10
2.7
20
27.1
11
101.7
21
27.1
0
LINE
8
0
10
101.7
20
-9.7
11
101.7
21
27.1
0
ENDSEC
0
EOF